SRC/Xorshift/xorshift256+/xorshift256_plus_tb.vcd
$date
	Sun Dec  7 01:17:39 2025
$end
$version
	Icarus Verilog
$end
$timescale
	1ps
$end
$scope module tb_xorshift256_plus $end
$var wire 64 ! out [63:0] $end
$var reg 1 " clk $end
$var reg 1 # en $end
$var reg 1 $ rst $end
$var reg 256 % seed [255:0] $end
$scope module dut $end
$var wire 1 " clk $end
$var wire 1 # en $end
$var wire 1 $ rst $end
$var wire 256 & seed [255:0] $end
$var reg 64 ' out [63:0] $end
$var reg 64 ( s0 [63:0] $end
$var reg 64 ) s1 [63:0] $end
$var reg 64 * s2 [63:0] $end
$var reg 64 + s3 [63:0] $end
$scope function rotl64 $end
$var reg 6 , k [5:0] $end
$var reg 64 - x [63:0] $end
$upscope $end
$upscope $end
$upscope $end
$enddefinitions $end
$comment Show the parameter values. $end
$dumpall
$end
#0
$dumpvars
bx -
bx ,
b1001111000110111011110011011100101111111010010100111110000010101 +
b1101001010110111010001000000011110110001110011100110111010010011 *
b1001010011010000010010011011101100010011001100010001000111101011 )
b1001000110100010101100111100010101011110011011110111100000000 (
b0 '
b1001111000110111011110011011100101111111010010100111110000010101110100101011011101000100000001111011000111001110011011101001001110010100110100000100100110111011000100110011000100010001111010110001001000110100010101100111100010101011110011011110111100000000 &
b1001111000110111011110011011100101111111010010100111110000010101110100101011011101000100000001111011000111001110011011101001001110010100110100000100100110111011000100110011000100010001111010110001001000110100010101100111100010101011110011011110111100000000 %
1$
0#
0"
b0 !
$end
#5000
1"
#10000
0"
#15000
1"
#20000
0"
1#
0$
#25000
b1000110000000011001011111100000111010100100001111001001100010101 (
b100011001100111000011011011110010100010111111110111111101111000 )
b100111110000010101100111100011011101111001101110010111111101001 +
b100000111000001011000100110010110010010000110000110111010010011 *
b1011000001101011110100000011001000101011000110000110101100010101 !
b1011000001101011110100000011001000101011000110000110101100010101 '
b1001111000110111011110011011100101111111010010100111110000010101 -
b101101 ,
1"
#30000
0"
#35000
b1100001110000001100111000000011100111011101100001011110011111100 (
b11110100110011011111101100100110000111001110001000111101011 )
b1110010111111101001010011111000001010110011110001101110111100110 +
b101101010111000001001111001101101101100111010000110111010010011 *
b1101101110000101111000111000100011000011101111101100001011111110 !
b1101101110000101111000111000100011000011101111101100001011111110 '
b100111110000010101100111100011011101111001101110010111111101001 -
1"
#40000
0"
#45000
b10011001111100101101011111011101101101110010000110000100011010 (
b101110100011110010010000100001001011100000011110111111101111000 )
b1101110111100110111001011111110100101001111100000101011001111 +
b1000010100001010010001100101010101001111001111100110111010010011 *
b1010100101111110110001011111011110010010001010011001101011100010 !
b1010100101111110110001011111011110010010001010011001101011100010 '
b1110010111111101001010011111000001010110011110001101110111100110 -
1"
#50000
0"
#55000
b11110111000000011010010100100011001000111101100110101111010101 (
b1101100000010100000011100001011100010011001100010001000111101011 )
b1100000101011001111000110111011110011011100101111111010010100111 +
b1010110001110111111100100101110110001110011100110111010010011 *
b100001000111001100100101011011100010011000001100110101111101001 !
b100001000111001100100101011011100010011000001100110101111101001 '
b1101110111100110111001011111110100101001111100000101011001111 -
1"
#60000
0"
#65000
b1111110010011001100010100011111101010011011000011001111101110010 (
b1100110110011010111100000101110010100010111111110111111101111000 )
b1111111010010100111110000010101100111100011011101111001101110010 +
b100110100000110110000010100110010010000110000110111010010011 *
b1111111100011010010011001100000001100100100011100110000001111100 !
b1111111100011010010011001100000001100100100011100110000001111100 '
b1100000101011001111000110111011110011011100101111111010010100111 -
1"
#70000
0"
#75000
b1000001101011100100001010001101111000011110110110000000000 (
b1100010000111010001010000111010100110000111001110001000111101011 )
b1101111001101110010111111101001010011111000001010110011110001101 +
b1110100100011001100111011101011101101100111010000110111010010011 *
b1111101100101110100000100110101010001111110100001001001011100100 !
b1111101100101110100000100110101010001111110100001001001011100100 '
b1111111010010100111110000010101100111100011011101111001101110010 -
1"
#80000
0"
#85000
b1101110001100011001011011100011011110000000010100000101110001101 (
b10110100100011101101011010001001011100000011110111111101111000 )
b1010110011110001101110111100110111001011111110100101001111100000 +
b1011100111110011111111000001100101001111001111100110111010010011 *
b1110000001111011110100011110011100001110000101001101001110001101 !
b1110000001111011110100011110011100001110000101001101001110001101 '
b1101111001101110010111111101001010011111000001010110011110001101 -
1"
#90000
0"
#95000
b111000010010010100101100000101100111011111100000101100001101101 (
b1001010011010000010010011011101100010011001100010001000111101011 )
b100101001111100000101011001111000110111011110011011100101111111 +
b1101001010110111010001000000011110110001110011100110111010010011 *
b1000100101010100111010011001010010111100000001000101111101101101 !
b1000100101010100111010011001010010111100000001000101111101101101 '
b1010110011110001101110111100110111001011111110100101001111100000 -
1"
#100000
0"
#105000
b11101011101110100000111001010100001100100010011110000100010010 (
b100011001100111000011011011110010100010111111110111111101111000 )
b11011100101111111010010100111110000010101100111100011011101111 +
b100000111000001011000100110010110010010000110000110111010010011 *
b1011101100001110101010111010100101110011011010100001000111101100 !
b1011101100001110101010111010100101110011011010100001000111101100 '
b100101001111100000101011001111000110111011110011011100101111111 -
1"
#110000
0"
#115000
b110111000001011010101101101010001110001110100010011111111101 (
b11110100110011011111101100100110000111001110001000111101011 )
b111100011011101111001101110010111111101001010011111000001010110 +
b101101010111000001001111001101101101100111010000110111010010011 *
b111001000011110011011001110010010001111001111011010100000000001 !
b111001000011110011011001110010010001111001111011010100000000001 '
b11011100101111111010010100111110000010101100111100011011101111 -
1"
#120000
0"
#125000
b111010100011100100011000011111101110011000100111101011110101011 (
b101110100011110010010000100001001011100000011110111111101111000 )
b11111000001010110011110001101110111100110111001011111110100101 +
b1000010100001010010001100101010101001111001111100110111010010011 *
b1000011010011111010100011100000010001011011001000001100001010011 !
b1000011010011111010100011100000010001011011001000001100001010011 '
b111100011011101111001101110010111111101001010011111000001010110 -
1"
#130000
0"
#135000
b100101100010110010000110010010011001111110011110110100000001110 (
b1101100000010100000011100001011100010011001100010001000111101011 )
b1001011111110100101001111100000101011001111000110111011110011011 +
b1010110001110111111100100101110110001110011100110111010010011 *
b1011001100100111010110110101101100101111111100001001011101010000 !
b1011001100100111010110110101101100101111111100001001011101010000 '
b11111000001010110011110001101110111100110111001011111110100101 -
1"
#140000
0"
#145000
b1101110011100010111001001110010110010110001011000001111110010101 (
b1100110110011010111100000101110010100010111111110111111101111000 )
b110111011110011011100101111111010010100111110000010101100111100 +
b100110100000110110000010100110010010000110000110111010010011 *
b1110001100001010111010101110011000101001101100101101111110101001 !
b1110001100001010111010101110011000101001101100101101111110101001 '
b1001011111110100101001111100000101011001111000110111011110011011 -
1"
#150000
0"
#155000
b1011001000010001100101100001101100000010110101000011010010101001 (
b1100010000111010001010000111010100110000111001110001000111101011 )
b10101100111100011011101111001101110010111111101001010011111 +
b1110100100011001100111011101011101101100111010000110111010010011 *
b100101111010110010101111110010000101011001001000100101011010001 !
b100101111010110010101111110010000101011001001000100101011010001 '
b110111011110011011100101111111010010100111110000010101100111100 -
1"
#160000
0"
#165000
b1011011101110110000110111100010101101100100010111110011000110110 (
b10110100100011101101011010001001011100000011110111111101111000 )
b1111101001010011111000001010110011110001101110111100110111001011 +
b1011100111110011111111000001100101001111001111100110111010010011 *
b1011011101111001001000111111100101110001001101000000011101001000 !
b1011011101111001001000111111100101110001001101000000011101001000 '
b10101100111100011011101111001101110010111111101001010011111 -
1"
#170000
0"
#175000
b100110100100101111110110110100110011101001100000010101111111101 (
b1001010011010000010010011011101100010011001100010001000111101011 )
b111100110111001011111110100101001111100000101011001111000110111 +
b1101001010110111010001000000011110110001110011100110111010010011 *
b1011000111001001111111000111001001011110010001111011010000000001 !
b1011000111001001111111000111001001011110010001111011010000000001 '
b1111101001010011111000001010110011110001101110111100110111001011 -
1"
#180000
0"
#185000
b11010010011100100001000010001111100001001001011011010111001010 (
b100011001100111000011011011110010100010111111110111111101111000 )
b1011001111000110111011110011011100101111111010010100111110000010 +
b100000111000001011000100110010110010010000110000110111010010011 *
b1100011011011111011110101011010000011001010001011100101000110100 !
b1100011011011111011110101011010000011001010001011100101000110100 '
b111100110111001011111110100101001111100000101011001111000110111 -
1"
#190000
0"
#195000
b1000011101011010011010110001010011001110110011001111101001001000 (
b11110100110011011111101100100110000111001110001000111101011 )
b10100111110000010101100111100011011101111001101110010111111101 +
b101101010111000001001111001101101101100111010000110111010010011 *
b1110100001100011011100110101101100010001000011110000010101001100 !
b1110100001100011011100110101101100010001000011110000010101001100 '
b1011001111000110111011110011011100101111111010010100111110000010 -
1"
#200000
0"
#205000
b1010111010101010001111010110110000010011001010100001111110110101 (
b101110100011110010010000100001001011100000011110111111101111000 )
b1101110010111111101001010011111000001010110011110001101110111100 +
b1000010100001010010001100101010101001111001111100110111010010011 *
b1011000101001010110000011000110110101100101100111110000001000101 !
b1011000101001010110000011000110110101100101100111110000001000101 '
b10100111110000010101100111100011011101111001101110010111111101 -
1"
#210000
0"
#215000
b111001000010101100110000101001000011001111001010000010000001001 (
b1101100000010100000011100001011100010011001100010001000111101011 )
b1110001101110111100110111001011111110100101001111100000101011001 +
b1010110001110111111100100101110110001110011100110111010010011 *
b1000101101101001111000101010101000011101111110010011101101110001 !
b1000101101101001111000101010101000011101111110010011101101110001 '
b1101110010111111101001010011111000001010110011110001101110111100 -
1"
#220000
0"
#225000
b1001000101100010000000111100010111101101010000101100010101010000 (
b1100110110011010111100000101110010100010111111110111111101111000 )
b1111100000101011001111000110111011110011011100101111111010010100 +
b100110100000110110000010100110010010000110000110111010010011 *
b101010110001101001100111110101000001110100011001100010101100010 !
b101010110001101001100111110101000001110100011001100010101100010 '
b1110001101110111100110111001011111110100101001111100000101011001 -
1"
#230000
0"
#235000
b110100101001001001111111010101100011110001100000011101111000100 (
b1100010000111010001010000111010100110000111001110001000111101011 )
b101111111010010100111110000010101100111100011011101111001101110 +
b1110100100011001100111011101011101101100111010000110111010010011 *
b1000100110001101010000000011010011100000101101011100001111100100 !
b1000100110001101010000000011010011100000101101011100001111100100 '
b1111100000101011001111000110111011110011011100101111111010010100 -
1"
#240000
0"
#245000
b11011010011011101000001010111001111001101111011110010110101010 (
b10110100100011101101011010001001011100000011110111111101111000 )
b1011101111001101110010111111101001010011111000001010110011110001 +
b1011100111110011111111000001100101001111001111100110111010010011 *
b1100100100011011110111101011000010000101101111100001101000110010 !
b1100100100011011110111101011000010000101101111100001101000110010 '
b101111111010010100111110000010101100111100011011101111001101110 -
1"
#250000
0"
#255000
b1000110101010110011010110101010000101010010111010100100101011011 (
b1001010011010000010010011011101100010011001100010001000111101011 )
b1010110011110001101110111100110111001011111110100101001111100 +
b1101001010110111010001000000011110110001110011100110111010010011 *
b1111001001101001011011001010100011001101100111101001001010011011 !
b1111001001101001011011001010100011001101100111101001001010011011 '
b1011101111001101110010111111101001010011111000001010110011110001 -
1"
#260000
0"
#265000
b1001100011001000010111000010110110010011001000100000001100100111 (
b100011001100111000011011011110010100010111111110111111101111000 )
b1110100101001111100000101011001111000110111011110011011100101111 +
b100000111000001011000100110010110010010000110000110111010010011 *
b1010001011110100101000101100110111100011110111001001001111010111 !
b1010001011110100101000101100110111100011110111001001001111010111 '
b1010110011110001101110111100110111001011111110100101001111100 -
1"
#270000
0"
#275000
b111000110000111110111101001111001010101110011010011010000001000 (
b11110100110011011111101100100110000111001110001000111101011 )
b1110011011100101111111010010100111110000010101100111100011011101 +
b101101010111000001001111001101101101100111010000110111010010011 *
b1000001000010111110111101110000101011010000100010011101001010110 !
b1000001000010111110111101110000101011010000100010011101001010110 '
b1110100101001111100000101011001111000110111011110011011100101111 -
1"
#280000
0"
#285000
b1001011101100010001000111011011110100101100110110100110011010101 (
b101110100011110010010000100001001011100000011110111111101111000 )
b1100111100011011101111001101110010111111101001010011111000001010 +
b1000010100001010010001100101010101001111001111100110111010010011 *
b101100001101101110110111100100001000110001000111010110011100101 !
b101100001101101110110111100100001000110001000111010110011100101 '
b1110011011100101111111010010100111110000010101100111100011011101 -
1"
#290000
0"
#295000
b101100001111001100111110110101100011010001111100111001011011111 (
b1101100000010100000011100001011100010011001100010001000111101011 )
b1010011111000001010110011110001101110111100110111001011111110100 +
b1010110001110111111100100101110110001110011100110111010010011 *
b110011001111101111000001001010001100101010000001000101011011111 !
b110011001111101111000001001010001100101010000001000101011011111 '
b1100111100011011101111001101110010111111101001010011111000001010 -
1"
#300000
0"
#305000
b1111111110111000110001101000100001101101101001011110010100101011 (
b1100110110011010111100000101110010100010111111110111111101111000 )
b111001011111110100101001111100000101011001111000110111011110011 +
b100110100000110110000010100110010010000110000110111010010011 *
b111010111110010100111010010001110110100000101011010011 !
b111010111110010100111010010001110110100000101011010011 '
b1010011111000001010110011110001101110111100110111001011111110100 -
1"
#310000
0"
#315000
b1000110101000110010100100111000001000110100110011000101111011000 (
b1100010000111010001010000111010100110000111001110001000111101011 )
b1000110111011110011011100101111111010010100111110000010101100111 +
b1110100100011001100111011101011101101100111010000110111010010011 *
b111001010110111010110111000000010011000111000100101010000011110 !
b111001010110111010110111000000010011000111000100101010000011110 '
b111001011111110100101001111100000101011001111000110111011110011 -
1"
#320000
0"
#325000
b10011000001111000010111110010100000001101000111010111111 (
b10110100100011101101011010001001011100000011110111111101111000 )
b1110000010101100111100011011101111001101110010111111101001010011 +
b1011100111110011111111000001100101001111001111100110111010010011 *
b1101100100100110000001101000000011001001110001001000100111111 !
b1101100100100110000001101000000011001001110001001000100111111 '
b1000110111011110011011100101111111010010100111110000010101100111 -
1"
#330000
0"
#335000
0#
1"
#340000
0"
#345000
1"
#350000
0"
#355000
1"
#360000
0"
#365000
1"
#370000
0"
#375000
1"
#380000
0"
#385000
b1110000000110100110011011001010001011001110011010111010011101100 (
b1001010011010000010010011011101100010011001100010001000111101011 )
b111111101001010011111000001010110011110001101110111100110111001 +
b1101001010110111010001000000011110110001110011100110111010010011 *
b1110000101000101001011011110101101100001110100101000100100010010 !
b1110000101000101001011011110101101100001110100101000100100010010 '
b1110000010101100111100011011101111001101110010111111101001010011 -
1"
1#
#390000
0"
#395000
b1001111101111110101100011000000111000111111110100000110101010101 (
b100011001100111000011011011110010100010111111110111111101111000 )
b1110111100110111001011111110100101001111100000101011001111000110 +
b100000111000001011000100110010110010010000110000110111010010011 *
b101111101111111010010011010100111111000000001001110111010100101 !
b101111101111111010010011010100111111000000001001110111010100101 '
b111111101001010011111000001010110011110001101110111100110111001 -
1"
#400000
0"
#405000
b111000001001001100111100110100010001000011110001011111010010011 (
b11110100110011011111101100100110000111001110001000111101011 )
b101011001111000110111011110011011100101111111010010100111110000 +
b101101010111000001001111001101101101100111010000110111010010011 *
b1000111010110101111000010110101100010111011111001100000100011011 !
b1000111010110101111000010110101100010111011111001100000100011011 '
b1110111100110111001011111110100101001111100000101011001111000110 -
1"
#410000
0"
#415000
b10011000110001010000111000111001101101100001011001011101100011 (
b101110100011110010010000100001001011100000011110111111101111000 )
b1010010100111110000010101100111100011011101111001101110010111111 +
b1000010100001010010001100101010101001111001111100110111010010011 *
b1100011011000010011111000100111101101110011101011110100010000011 !
b1100011011000010011111000100111101101110011101011110100010000011 '
b101011001111000110111011110011011100101111111010010100111110000 -
1"
#420000
0"
#425000
b1000001100001111010010010100000101110110001110010100101111011100 (
b1101100000010100000011100001011100010011001100010001000111101011 )
b1001101110010111111101001010011111000001010110011110001101110111 +
b1010110001110111111100100101110110001110011100110111010010011 *
b1100101101101111010011100101110110001001010000100111010000100010 !
b1100101101101111010011100101110110001001010000100111010000100010 '
b1010010100111110000010101100111100011011101111001101110010111111 -
1"
#430000
0"
#435000
b1100010011000101111011110011010110111011000001010100010101011 (
b1100110110011010111100000101110010100010111111110111111101111000 )
b11110001101110111100110111001011111110100101001111100000101011 +
b100110100000110110000010100110010010000110000110111010010011 *
b1111010100111001111011110100100110111100100110010111101010011 !
b1111010100111001111011110100100110111100100110010111101010011 '
b1001101110010111111101001010011111000001010110011110001101110111 -
1"
#440000
0"
#445000
b10010011110110010011101001010001001001111101000101000010000000 (
b1100010000111010001010000111010100110000111001110001000111101011 )
b1001111100000101011001111000110111011110011011100101111111010010 +
b1110100100011001100111011101011101101100111010000110111010010011 *
b101010100000111101100010101100110110101111101011010000011010110 !
b101010100000111101100010101100110110101111101011010000011010110 '
b11110001101110111100110111001011111110100101001111100000101011 -
1"
#450000
0"
#455000
b1011101111110011001010010001100110010111100110100000111101010010 (
b10110100100011101101011010001001011100000011110111111101111000 )
b1100101111111010010100111110000010101100111100011011101111001101 +
b1011100111110011111111000001100101001111001111100110111010010011 *
b1100001111111011101101100010001000101000011000101011000001010010 !
b1100001111111011101101100010001000101000011000101011000001010010 '
b1001111100000101011001111000110111011110011011100101111111010010 -
1"
#460000
0"
#465000
b111000000001001011110101111100100111011011010111011010010011111 (
b1001010011010000010010011011101100010011001100010001000111101011 )
b11011101111001101110010111111101001010011111000001010110011110 +
b1101001010110111010001000000011110110001110011100110111010010011 *
b1000011111101101011111001111101001000100100010111100101100011111 !
b1000011111101101011111001111101001000100100010111100101100011111 '
b1100101111111010010100111110000010101100111100011011101111001101 -
1"
#470000
0"
#475000
b100011101110000110000111000011001110001000101111010000100000001 (
b100011001100111000011011011110010100010111111110111111101111000 )
b1000001010110011110001101110111100110111001011111110100101001111 +
b100000111000001011000100110010110010010000110000110111010010011 *
b1010011110000011001101000111100010000101111001111100101000111101 !
b1010011110000011001101000111100010000101111001111100101000111101 '
b11011101111001101110010111111101001010011111000001010110011110 -
1"
